module gitlab.com/jarv/cmdchallenge

go 1.19

require (
	github.com/didip/tollbooth v4.0.2+incompatible
	github.com/docker/docker v20.10.17+incompatible
	github.com/go-logr/logr v1.2.3
	github.com/go-logr/zerologr v1.2.2
	github.com/google/go-cmp v0.5.8
	github.com/gorilla/handlers v1.5.1
	github.com/gorilla/mux v1.8.0
	github.com/mattn/go-sqlite3 v1.14.14
	github.com/prometheus/client_golang v1.12.2
	github.com/rs/zerolog v1.27.0
	github.com/stretchr/testify v1.8.0
)

require (
	github.com/Azure/go-ansiterm v0.0.0-20210617225240-d185dfc1b5a1 // indirect
	github.com/Microsoft/go-winio v0.5.2 // indirect
	github.com/beorn7/perks v1.0.1 // indirect
	github.com/cespare/xxhash/v2 v2.1.2 // indirect
	github.com/davecgh/go-spew v1.1.1 // indirect
	github.com/docker/distribution v2.8.1+incompatible // indirect
	github.com/docker/go-connections v0.4.0 // indirect
	github.com/docker/go-units v0.4.0 // indirect
	github.com/felixge/httpsnoop v1.0.3 // indirect
	github.com/gogo/protobuf v1.3.2 // indirect
	github.com/golang/protobuf v1.5.2 // indirect
	github.com/kr/text v0.2.0 // indirect
	github.com/mattn/go-colorable v0.1.12 // indirect
	github.com/mattn/go-isatty v0.0.14 // indirect
	github.com/matttproud/golang_protobuf_extensions v1.0.2-0.20181231171920-c182affec369 // indirect
	github.com/moby/term v0.0.0-20210610120745-9d4ed1856297 // indirect
	github.com/morikuni/aec v1.0.0 // indirect
	github.com/opencontainers/go-digest v1.0.0 // indirect
	github.com/opencontainers/image-spec v1.0.3-0.20211202183452-c5a74bcca799 // indirect
	github.com/patrickmn/go-cache v2.1.0+incompatible // indirect
	github.com/pkg/errors v0.9.1 // indirect
	github.com/pmezard/go-difflib v1.0.0 // indirect
	github.com/prometheus/client_model v0.2.0 // indirect
	github.com/prometheus/common v0.37.0 // indirect
	github.com/prometheus/procfs v0.7.3 // indirect
	github.com/sirupsen/logrus v1.9.0 // indirect
	github.com/stretchr/objx v0.4.0 // indirect
	golang.org/x/exp v0.0.0-20220921164117-439092de6870 // indirect
	golang.org/x/net v0.0.0-20220708220712-1185a9018129 // indirect
	golang.org/x/sys v0.0.0-20220722155257-8c9f86f7a55f // indirect
	golang.org/x/time v0.0.0-20220609170525-579cf78fd858 // indirect
	google.golang.org/protobuf v1.28.0 // indirect
	gopkg.in/check.v1 v1.0.0-20201130134442-10cb98267c6c // indirect
	gopkg.in/yaml.v3 v3.0.1 // indirect
	gotest.tools/v3 v3.0.3 // indirect
)
